{
	"images": [
		"win_fire_mobile-0.png"
	],

	"frames": [
		[467, 154, 231, 149, 0, 15, 101.5, 432, 249],
		[1, 1, 231, 154, 0, 15, 106.5, 432, 249],
		[700, 305, 231, 147, 0, 15, 99.5, 432, 249],
		[234, 1, 231, 152, 0, 15, 104.5, 432, 249],
		[467, 305, 231, 149, 0, 15, 101.5, 432, 249],
		[700, 1, 231, 150, 0, 15, 102.5, 432, 249],
		[1, 313, 231, 153, 0, 15, 105.5, 432, 249],
		[234, 155, 231, 152, 0, 15, 104.5, 432, 249],
		[234, 309, 231, 152, 0, 15, 105.5, 432, 249],
		[1, 157, 231, 154, 0, 15, 107.5, 432, 249],
		[467, 1, 231, 151, 0, 15, 103.5, 432, 249],
		[700, 153, 231, 150, 0, 15, 102.5, 432, 249]
	],

	"animations": {
		"EPIC WIN": {
			"frames":[0,1,2,3,4,5,6,7,8,9,10,11],
			"next":true
		}
	}
}

