{
	"images":
	[
		"chips_sg_desktop.png"
	], 
	"framerate": 24, 
	"frames":
	[
		[1, 1, 94, 101, 0, 47, 50.5, 94, 101, 0, 0], 
		[1, 104, 94, 101, 0, 47, 50.5, 94, 101, 0, 0], 
		[97, 1, 94, 101, 0, 47, 50.5, 94, 101, 0, 0], 
		[97, 104, 94, 101, 0, 47, 50.5, 94, 101, 0, 0], 
		[97, 207, 94, 101, 0, 47, 50.5, 94, 101, 0, 0], 
		[193, 1, 94, 101, 0, 47, 50.5, 94, 101, 0, 0], 
		[289, 1, 94, 101, 0, 47, 50.5, 94, 101, 0, 0], 
		[193, 104, 94, 101, 0, 47, 50.5, 94, 101, 0, 0], 
		[193, 207, 94, 101, 0, 47, 50.5, 94, 101, 0, 0], 
		[289, 104, 94, 101, 0, 47, 50.5, 94, 101, 0, 0], 
		[1, 207, 94, 101, 0, 47, 50.5, 94, 101, 0, 0]
	], 
	"animations":
	{
		"0":
		{
			"frames": [0], 
			"next": null
		}, 
		"1":
		{
			"frames": [1], 
			"next": null
		}, 
		"2":
		{
			"frames": [2], 
			"next": null
		}, 
		"3":
		{
			"frames": [3], 
			"next": null
		}, 
		"4":
		{
			"frames": [4], 
			"next": null
		}, 
		"5":
		{
			"frames": [5], 
			"next": null
		}, 
		"6":
		{
			"frames": [6], 
			"next": null
		}, 
		"7":
		{
			"frames": [7], 
			"next": null
		}, 
		"8":
		{
			"frames": [8], 
			"next": null
		}, 
		"9":
		{
			"frames": [9], 
			"next": null
		}, 
		"10":
		{
			"frames": [10], 
			"next": null
		}
	}, 
	"events":
	[], 
	"meta":
	{
		"version": "Red 7 Exporter ver. 2.2", 
		"exported": "Mon Aug 06 2018", 
		"options":
		{
			"compact": false, 
			"sorted": true, 
			"fps": 24
		}, 
		"smartKey": "$TexturePacker:SmartUpdate:1c36527bcd1e309917fcba705b4a4893:01dc9263c86044d0772619a2d5cdb6b9:03e06837bca71e5cfbc70c59b63aafb4$"
	}
}