{
    "rootModule": "Game",
    "extraModules": [ "Core.Ticker.Red7", "Core.Rendering.PIXI", "Core.Audio.Howler", "SG.Environment", "Slots.SG.Platform", "Core.SonarQube" ],
    "tasks":
    {
        "cc":
        {
            "requires": ["assemble"],
            "extraModules":
            [
                "Core.ClosureCompilation"
            ]
        }
    },
    "moduleConfigs":
    {
        "Core.SonarQube":
        {
            "serverURL": "https://sglauncher.dev.red7sportstech.com/sonarqube/",
            "authKey": "dummykey",

            // WhiteLabelSlot
            "projectName": "WhiteLabelSlot",
            "projectKey": "WLS"

            // Synergy
            // "projectName": "Synergy",
            // "projectKey": "SYN",
            // "baseDirectory": "app/synergy/modules"
        }
    }
}