{
  "title": "Rendering Abstraction Layer",
  "name": "Core.Rendering",
  "description": "An abstraction layer for a rendering library.",
  "dependencies": [
    "Core",
    "Core.Math",
    "Core.DOM",
    "Core.Asset",
    "Core.Asset.ShaderPipeline",
    "Core.Asset.FontPipeline",
    "Core.Audio"
  ],
  "thirdparty":
  {
    "crunch":
    {
      "src": "crn_decomp.js"
    }
  },
  "definitions":
  {
    "crunch": "thirdparty/crn_decomp.d.ts",
    "opentype.js": "thirdparty/opentype.js.d.ts"
  },
  "bowerdependencies":
  {
    "opentype.js": "~1.1.0"
  },
  "assetpipeline":
  {
    "namespace": "RS.Rendering.Assets"
  }
}