{
    "name": "Slots.SG.Engine",
    "title": "Slots.SG.Engine",
    "description": "Slots SGD GLM interface",
    "dependencies":
    [
        "Core",
        "Core.Localisation",
        "Core.Serialisation",
        "Core.Platform",
        "Core.SG.Engine",
        "Slots.Engine",
        "Slots.Models",
        "Slots.Platform",
        "SG.Replay",
        "SG.Environment"
    ],
    "testdependencies":
    [
      "Core.Rendering.PIXI"
    ],
    "$schema": "../../../../schemas/moduleinfo.json",
    "localisation":
    {
      "namespace": "SG.GLM.Translations"
    }
}