{
    "name": "Red7.Syndicate",
    "title": "Red7 Syndicate",
    "description": "Mega Drop Syndicate Jackpot",
    "dependencies":
    [
        "Red7.MegaDrop",
        "Core.Asset.HelpPipeline",
        "Core.Asset.SheetPackPipeline"
    ],
    "primarynamespace": "Red7.Syndicate",
    "assetpipeline":
    {
      "namespace": "Red7.Syndicate.Assets"
    },
    "localisation":
    {
      "namespace": "Red7.Syndicate.Translations"
    },
    "shaderpipeline":
    {
      "namespace": "Red7.Syndicate.Shaders"
    },
    "testdependencies":
    [
        "Core.Rendering.PIXI"
    ],
    "$schema": "../../../../schemas/moduleinfo.json"
}
