{
  "title": "Slots.Models",
  "description": "Common model data for slot games.",
  "dependencies": [
    "Core",
    "Core.Math",
    "Core.Localisation",
    "Core.Models",
    "Slots.Core"
  ],
  "$schema": "../../../schemas/moduleinfo.json"
}