{
  "title": "Core.Paytable",
  "description": "Description goes here",
  "dependencies": [
    "Core",
    "Core.Flow",
    "Core.Platform",
    "Core.Models"
  ],
  "$schema": "../../../schemas/moduleinfo.json",
  "localisation":
  {
      "namespace": "RS.Translations"
  }
}
