{
  "title": "Core.ClosureCompilation",
  "description": "Closure compiles a game's build files.",
  "dependencies": [
    "Core",
    "Core.SymbolSafe",
    "Core.Reflection"
  ],
  "$schema": "../../../schemas/moduleinfo.json",
  "name": "Core.ClosureCompilation"
}