{
  "name": "Red7.MegaWays",
  "title": "Red7 MegaWays",
  "description": "MegaWays Reels",
  "dependencies":
  [
    "Core",
    "Core.Asset.Pipeline",
    "Core.Asset.ImagePipeline",
    "Core.Asset.SoundPipeline",
    "Core.Localisation",
    "Core.Rendering",
    "Core.Flow",
    "Core.View",
    "Slots.Game",
    "Slots.DevTools",
    "SG.Environment"
  ],
  "primarynamespace": "Red7.MegaWays",
  "assetpipeline":
  {
    "namespace": "Red7.MegaWays.Assets"
  },
  "localisation":
  {
    "namespace": "Red7.MegaWays.Translations"
  },
  "testdependencies":
  [
    "Core.Rendering.PIXI"
  ],
  "$schema": "../../../schemas/moduleinfo.json"
}