{
	"images":
	[
		"coins_mobile-0.png"
	], 
	"framerate": 24, 
	"frames":
	[
		[1, 1, 98, 99, 0, 50.04638786999999, 50.354004290000006, 307, 307, 109, 97], 
		[133, 101, 98, 96, 0, 50.04638786999999, 50.354004290000006, 307, 307, 109, 97], 
		[355, 96, 99, 88, 0, 51.04638786999999, 47.354004290000006, 307, 307, 108, 100], 
		[599, 383, 99, 74, 0, 51.04638786999999, 41.354004290000006, 307, 307, 108, 106], 
		[834, 436, 99, 56, 0, 51.04638786999999, 32.354004290000006, 307, 307, 108, 115], 
		[434, 475, 99, 35, 0, 51.04638786999999, 20.354004290000006, 307, 307, 108, 127], 
		[580, 238, 99, 14, 0, 51.04638786999999, 7.354004290000006, 307, 307, 108, 140], 
		[717, 313, 99, 37, 0, 51.04638786999999, 16.354004290000006, 307, 307, 108, 131], 
		[700, 381, 99, 59, 0, 51.04638786999999, 26.354004290000006, 307, 307, 108, 121], 
		[531, 86, 99, 77, 0, 51.04638786999999, 35.354004290000006, 307, 307, 108, 112], 
		[319, 390, 99, 89, 0, 51.04638786999999, 42.354004290000006, 307, 307, 108, 105], 
		[130, 202, 99, 96, 0, 51.04638786999999, 47.354004290000006, 307, 307, 108, 100], 
		[1, 304, 99, 98, 0, 51.04638786999999, 49.354004290000006, 307, 307, 108, 98], 
		[131, 402, 99, 95, 0, 51.04638786999999, 49.354004290000006, 307, 307, 108, 98], 
		[363, 1, 99, 88, 0, 51.04638786999999, 47.354004290000006, 307, 307, 108, 100], 
		[515, 258, 99, 75, 0, 51.04638786999999, 41.354004290000006, 307, 307, 108, 106], 
		[801, 377, 99, 57, 0, 51.04638786999999, 32.354004290000006, 307, 307, 108, 115], 
		[616, 319, 99, 34, 0, 51.04638786999999, 19.354004290000006, 307, 307, 108, 128], 
		[352, 371, 99, 15, 0, 51.04638786999999, 7.354004290000006, 307, 307, 108, 140], 
		[902, 1, 99, 37, 0, 51.04638786999999, 16.354004290000006, 307, 307, 108, 131], 
		[733, 442, 99, 59, 0, 51.04638786999999, 26.354004290000006, 307, 307, 108, 121], 
		[538, 1, 99, 77, 0, 51.04638786999999, 35.354004290000006, 307, 307, 108, 112], 
		[314, 192, 99, 89, 0, 51.04638786999999, 42.354004290000006, 307, 307, 108, 105], 
		[147, 1, 98, 96, 0, 50.04638786999999, 47.354004290000006, 307, 307, 109, 100], 
		[352, 283, 88, 86, 0, 46.54736213000001, 47.703125, 307, 307, 111, 101], 
		[580, 165, 93, 71, 0, 47.54736213000001, 40.703125, 307, 307, 110, 108], 
		[634, 459, 97, 52, 0, 48.54736213000001, 30.703125, 307, 307, 109, 118], 
		[333, 481, 99, 28, 0, 49.54736213000001, 17.703125, 307, 307, 108, 131], 
		[232, 491, 99, 20, 0, 49.54736213000001, 11.703125, 307, 307, 108, 137], 
		[535, 468, 97, 43, 0, 48.54736213000001, 21.703125, 307, 307, 109, 127], 
		[713, 248, 93, 63, 0, 47.54736213000001, 30.703125, 307, 307, 110, 118], 
		[491, 176, 87, 80, 0, 45.54736213000001, 39.703125, 307, 307, 112, 109], 
		[268, 296, 82, 92, 0, 43.54736213000001, 45.703125, 307, 307, 114, 103], 
		[102, 303, 79, 97, 0, 42.54736213000001, 49.703125, 307, 307, 115, 99], 
		[50, 203, 78, 98, 0, 42.54736213000001, 50.703125, 307, 307, 115, 98], 
		[231, 199, 81, 95, 0, 43.54736213000001, 50.703125, 307, 307, 114, 98], 
		[420, 388, 86, 85, 0, 45.54736213000001, 46.703125, 307, 307, 112, 102], 
		[632, 80, 92, 71, 0, 47.54736213000001, 39.703125, 307, 307, 110, 109], 
		[902, 84, 96, 51, 0, 48.54736213000001, 29.703125, 307, 307, 109, 119], 
		[453, 356, 99, 28, 0, 49.54736213000001, 16.703125, 307, 307, 108, 132], 
		[515, 335, 99, 19, 0, 49.54736213000001, 9.703125, 307, 307, 108, 139], 
		[902, 40, 98, 42, 0, 49.54736213000001, 20.703125, 307, 307, 108, 128], 
		[616, 254, 95, 63, 0, 48.54736213000001, 30.703125, 307, 307, 109, 118], 
		[508, 386, 89, 80, 0, 46.54736213000001, 38.703125, 307, 307, 111, 110], 
		[232, 397, 85, 92, 0, 45.54736213000001, 45.703125, 307, 307, 112, 103], 
		[47, 404, 82, 97, 0, 44.54736213000001, 49.703125, 307, 307, 113, 99], 
		[1, 102, 81, 99, 0, 43.54736213000001, 51.703125, 307, 307, 114, 97], 
		[183, 300, 83, 95, 0, 44.54736213000001, 50.703125, 307, 307, 113, 98], 
		[639, 1, 86, 67, 0, 41.598633579999984, 34.75439338000001, 307, 307, 114, 112], 
		[902, 137, 95, 47, 0, 45.598633579999984, 24.75439338000001, 307, 307, 110, 122], 
		[554, 356, 99, 25, 0, 47.598633579999984, 13.75439338000001, 307, 307, 108, 133], 
		[655, 355, 99, 24, 0, 47.598633579999984, 11.75439338000001, 307, 307, 108, 135], 
		[782, 186, 94, 47, 0, 45.598633579999984, 22.75439338000001, 307, 307, 110, 124], 
		[727, 1, 84, 67, 0, 40.598633579999984, 32.75439338000001, 307, 307, 115, 114], 
		[442, 271, 71, 83, 0, 34.598633579999984, 40.75439338000001, 307, 307, 121, 106], 
		[306, 1, 55, 93, 0, 27.598633579999984, 45.75439338000001, 307, 307, 128, 101], 
		[101, 1, 44, 98, 0, 22.598633579999984, 48.75439338000001, 307, 307, 133, 98], 
		[1, 404, 44, 98, 0, 22.598633579999984, 48.75439338000001, 307, 307, 133, 98], 
		[247, 1, 57, 94, 0, 28.598633579999984, 47.75439338000001, 307, 307, 127, 99], 
		[464, 1, 72, 83, 0, 35.598633579999984, 42.75439338000001, 307, 307, 120, 104], 
		[675, 153, 85, 67, 0, 41.598633579999984, 34.75439338000001, 307, 307, 114, 112], 
		[902, 235, 94, 46, 0, 45.598633579999984, 23.75439338000001, 307, 307, 110, 123], 
		[756, 352, 99, 23, 0, 47.598633579999984, 11.75439338000001, 307, 307, 108, 135], 
		[681, 222, 99, 24, 0, 47.598633579999984, 10.75439338000001, 307, 307, 108, 136], 
		[902, 186, 94, 47, 0, 45.598633579999984, 21.75439338000001, 307, 307, 110, 125], 
		[726, 70, 85, 67, 0, 41.598633579999984, 31.75439338000001, 307, 307, 114, 115], 
		[456, 91, 73, 83, 0, 36.598633579999984, 39.75439338000001, 307, 307, 119, 107], 
		[295, 97, 58, 93, 0, 29.598633579999984, 45.75439338000001, 307, 307, 126, 101], 
		[84, 102, 47, 98, 0, 24.598633579999984, 48.75439338000001, 307, 307, 131, 98], 
		[1, 203, 47, 99, 0, 24.598633579999984, 49.75439338000001, 307, 307, 131, 97], 
		[233, 99, 60, 94, 0, 30.598633579999984, 47.75439338000001, 307, 307, 125, 99], 
		[415, 186, 74, 83, 0, 36.598633579999984, 42.75439338000001, 307, 307, 119, 104]
	], 
	"animations":
	{
		"coin1.coinA":
		{
			"frames": [0, 1, 2, 3, 4, 5, 6, 7, 8, 9, 10, 11, 12, 13, 14, 15, 16, 17, 18, 19, 20, 21, 22, 23], 
			"next": "coin1.coinA"
		}, 
		"coin2.coinB":
		{
			"frames": [24, 25, 26, 27, 28, 29, 30, 31, 32, 33, 34, 35, 36, 37, 38, 39, 40, 41, 42, 43, 44, 45, 46, 47], 
			"next": "coin2.coinB"
		}, 
		"coin3.coinC":
		{
			"frames": [48, 49, 50, 51, 52, 53, 54, 55, 56, 57, 58, 59, 60, 61, 62, 63, 64, 65, 66, 67, 68, 69, 70, 71], 
			"next": "coin3.coinC"
		}
	}, 
	"events":
	[], 
	"meta":
	{
		"version": "Red 7 Exporter ver. 2.2", 
		"exported": "Fri Mar 16 2018", 
		"options":
		{
			"compact": false, 
			"sorted": true, 
			"fps": 24
		}, 
		"smartKey": "$TexturePacker:SmartUpdate:58b0bc9b3a5d5e11dc00ad8b9cbd28e8:617c9186a68f63dce27459ba78d7ba55:b7e27e70b3832845fbdec4fd9f513278$"
	}
}
