{
	"images":
	[
		"firework_desktop-0.png"
	], 
	"framerate": 24, 
	"frames":
	[
		[340, 1072, 3, 3, 0, 701.5, 378.5, 1403, 757, 0, 0], 
		[1005, 1351, 185, 188, 0, 97.5, 95.5, 1403, 757, 604, 283], 
		[1047, 219, 118, 117, 0, 61.5, 55.5, 1403, 757, 640, 323], 
		[1268, 201, 141, 138, 0, 73.5, 67.5, 1403, 757, 628, 311], 
		[1063, 1723, 162, 159, 0, 84.5, 79.5, 1403, 757, 617, 299], 
		[1005, 1541, 181, 180, 0, 94.5, 91.5, 1403, 757, 607, 287], 
		[1268, 1, 201, 198, 0, 105.5, 101.5, 1403, 757, 596, 277], 
		[1047, 1, 219, 216, 0, 115.5, 111.5, 1403, 757, 586, 267], 
		[518, 1774, 234, 232, 0, 123.5, 120.5, 1403, 757, 578, 258], 
		[266, 1775, 250, 247, 0, 132.5, 128.5, 1403, 757, 569, 250], 
		[1, 1775, 263, 261, 0, 139.5, 136.5, 1403, 757, 562, 242], 
		[1026, 346, 275, 275, 0, 146.5, 143.5, 1403, 757, 555, 235], 
		[1014, 676, 287, 287, 0, 153.5, 149.5, 1403, 757, 548, 229], 
		[916, 1050, 297, 299, 0, 158.5, 155.5, 1403, 757, 543, 223], 
		[754, 1734, 307, 309, 0, 164.5, 160.5, 1403, 757, 537, 218], 
		[687, 1413, 316, 319, 0, 169.5, 165.5, 1403, 757, 532, 213], 
		[701, 346, 323, 328, 0, 173.5, 170.5, 1403, 757, 528, 208], 
		[682, 712, 330, 336, 0, 177.5, 174.5, 1403, 757, 524, 204], 
		[1, 1430, 337, 343, 0, 181.5, 177.5, 1403, 757, 520, 201], 
		[1, 1078, 342, 350, 0, 184.5, 181.5, 1403, 757, 517, 197], 
		[1, 365, 347, 356, 0, 187.5, 184.5, 1403, 757, 514, 194], 
		[1, 1, 352, 362, 0, 190.5, 187.5, 1403, 757, 511, 191], 
		[1, 723, 337, 353, 0, 173.5, 175.5, 1403, 757, 528, 203], 
		[355, 1, 341, 345, 0, 175.5, 178.5, 1403, 757, 526, 200], 
		[340, 723, 340, 347, 0, 176.5, 179.5, 1403, 757, 525, 199], 
		[345, 1072, 343, 339, 0, 177.5, 169.5, 1403, 757, 524, 209], 
		[340, 1430, 345, 342, 0, 178.5, 171.5, 1403, 757, 523, 207], 
		[698, 1, 347, 343, 0, 179.5, 172.5, 1403, 757, 522, 206], 
		[350, 365, 349, 345, 0, 180.5, 173.5, 1403, 757, 521, 205], 
		[690, 1050, 224, 307, 0, 54.5, 134.5, 1403, 757, 647, 244], 
		[1063, 1884, 186, 134, 0, 39.5, 80.5, 1403, 757, 662, 298], 
		[340, 1072, 3, 3, 0, 701.5, 378.5, 1403, 757, 0, 0], 
		[340, 1072, 3, 3, 0, 701.5, 378.5, 1403, 757, 0, 0]
	], 
	"animations":
	{
		"Firework":
		{
			"frames": [0, 1, 2, 3, 4, 5, 6, 7, 8, 9, 10, 11, 12, 13, 14, 15, 16, 17, 18, 19, 20, 21, 22, 23, 24, 25, 26, 27, 28, 29, 30, 31, 32], 
			"next": null
		}
	}, 
	"events":
	[], 
	"meta":
	{
		"version": "Red 7 Exporter ver. 2.2", 
		"exported": "Fri Mar 16 2018", 
		"options":
		{
			"compact": false, 
			"sorted": true, 
			"fps": 24
		}, 
		"smartKey": "$TexturePacker:SmartUpdate:af65c13bcbc9eea22b4b31cce41a1993:b4e71ea7655071328c723da94a04a7fb:98f93ce1f7fe4818f52cbe1eb82634c6$"
	}
}
