{
    "title": "Table.State",
    "name": "Table.State",
    "description": "Common states for table games.",
    "dependencies": [
        "Core",
        "Table.Game",
        "Table.Models"
    ],
    "$schema": "../../../schemas/moduleinfo.json"
}
