{
    "title": "GameUI",
    "description": "UI controller implementing GameUI",
    "dependencies": [
      "Core",
      "Slots.UI",
      "Slots.Platform",
      "GDM.UI"
    ],
    "$schema": "../../../../schemas/moduleinfo.json",
    "name": "Slots.GDM.UI"
  }