{
    //"rulesDirectory": ["path/to/custom/rules/directory/", "another/path/"],
    "rules":
    {
        "adjacent-overload-signatures": true,
        "align":
        {
            "options":
            [
                "parameters",
                "statements"
            ]
        },
        "arrow-parens": true,
        "arrow-return-shorthand": true,
        "ban-types":
        {
            "options":
            [
                ["Object", "Avoid using the `Object` type. Did you mean `object`?"],
                ["Function", "Avoid using the `Function` type. Prefer a specific function type, like `() => void`."],
                ["Boolean", "Avoid using the `Boolean` type. Did you mean `boolean`?"],
                ["Number", "Avoid using the `Number` type. Did you mean `number`?"],
                ["String", "Avoid using the `String` type. Did you mean `string`?"]
            ]
        },
        //"callable-types": true,
        /*"interface-name":
        {
            "options": ["always-prefix"]
        },*/
        "class-name": true,
        "member-access": true,
        "curly": true,
        "cyclomatic-complexity": false,
        "forin": false,
        "import-spacing": true,
        "member-ordering":
        {
            "severity": "warning",
            "options":
            {
                "order":
                [
                    "public-static-field",
                    "protected-static-field",
                    "private-static-field",

                    "public-instance-field",
                    "protected-instance-field",
                    "private-instance-field",

                    "public-constructor",
                    "protected-constructor",
                    "private-constructor",

                    "public-static-method",
                    "protected-static-method",
                    "private-static-method",

                    "public-instance-method",
                    "protected-instance-method",
                    "private-instance-method"
                ]
            }
        },
        "no-angle-bracket-type-assertion": true,
        "no-any": false,
        "no-arg": true,
        "no-bitwise": false,
        "no-conditional-assignment": true,
        "no-console": false,
        "no-construct": true,
        "no-duplicate-super": true,
        "no-empty": { "severity": "warning" },
        "no-empty-interface": { "severity": "warning" },
        "no-consecutive-blank-lines": { "severity": "warning" },
        "no-debugger": { "severity": "warning" },
        "no-eval": true,
        "no-internal-module": true,
        "no-invalid-this": false,
        "no-misused-new": true,
        "no-namespace": false,
        "no-parameter-properties": false,
        "no-reference": false,
        "no-reference-import": true,
        "no-shadowed-variable": true,
        "no-string-literal": true,
        "no-string-throw": true,
        "no-switch-case-fall-through": false,
        "no-trailing-whitespace": false,
        "no-unnecessary-initializer": true,
        "no-unsafe-finally": true,
        "no-unused-expression": true,
        "no-use-before-declare": false,
        "no-var-keyword": true,
        "no-var-requires": true,
        "no-restricted-globals": [true, "name", "length"]
    },
    "jsRules":
    {
        "max-line-length": {}
    }
}