{
  "title": "Core.Music",
  "description": "Handles playing music.",
  "dependencies": [
    "Core",
    "Core.Asset",
    "Core.StateMachine",
    "Core.Audio"
  ],
  "$schema": "../../../schemas/moduleinfo.json"
}