{
  "title": "Red7.Intro",
  "description": "Standard video-based introduction sequence for Red7 games.",
  "dependencies": [
    "Core",
    "Core.Rendering",
    "Core.View",
    "Core.Game",
    "Core.iOS"
  ],
  "$schema": "../../../schemas/moduleinfo.json",
  "localisation": {
    "namespace": "Red7.Translations"
  }
}