{
	"images":
	[
		"logos_desktop.png"
	], 
	"framerate": 24, 
	"frames":
	[
		[307, 99, 171, 89, 0, 85.5, 44.5, 171, 89, 0, 0], 
		[129, 99, 176, 71, 0, 88, 35.5, 176, 71, 0, 0], 
		[368, 1, 124, 66, 0, 62, 33, 124, 66, 0, 0], 
		[1, 172, 158, 77, 0, 79, 38.5, 158, 77, 0, 0], 
		[208, 1, 158, 96, 0, 79, 48, 158, 96, 0, 0], 
		[1, 1, 205, 59, 0, 102.5, 29.5, 205, 59, 0, 0], 
		[1, 62, 126, 95, 0, 63, 47.5, 126, 95, 0, 0], 
		[320, 190, 154, 35, 0, 77, 17.5, 154, 35, 0, 0], 
		[161, 190, 157, 39, 0, 78.5, 19.5, 157, 39, 0, 0]
	], 
	"animations":
	{
		"bally":
		{
			"frames": [0], 
			"next": null
		}, 
		"barcrest":
		{
			"frames": [1], 
			"next": null
		}, 
		"red":
		{
			"frames": [2], 
			"next": null
		}, 
		"sgd":
		{
			"frames": [3], 
			"next": null
		}, 
		"sgi":
		{
			"frames": [4], 
			"next": null
		}, 
		"shuffle":
		{
			"frames": [5], 
			"next": null
		}, 
		"williams":
		{
			"frames": [6], 
			"next": null
		}, 
		"WMS_blue":
		{
			"frames": [7], 
			"next": null
		}, 
		"WMS_white":
		{
			"frames": [8], 
			"next": null
		}
	}, 
	"events":
	[], 
	"meta":
	{
		"version": "Red 7 Exporter ver. 2.2", 
		"exported": "Fri May 29 2020", 
		"options":
		{
			"compact": false, 
			"sorted": true, 
			"fps": 24
		}, 
		"smartKey": "$TexturePacker:SmartUpdate:7facd4f0a1a54480d4bc297393d2be90:e898f989ded73a5e597a96e7ad1a91dd:f4c0458f9ae318a1ce43f11081b93e3a$"
	}
}
